<?xml version="1.0" encoding="utf-8"?>
<!-- Generator: Adobe Illustrator 16.0.0, SVG Export Plug-In . SVG Version: 6.00 Build 0)  -->
<!DOCTYPE svg PUBLIC "-//W3C//DTD SVG 1.1//EN" "http://www.w3.org/Graphics/SVG/1.1/DTD/svg11.dtd">
<svg version="1.1" id="レイヤー_1" xmlns="http://www.w3.org/2000/svg" xmlns:xlink="http://www.w3.org/1999/xlink" x="0px"
	 y="0px" width="128px" height="128px" viewBox="0 0 128 128" enable-background="new 0 0 128 128" xml:space="preserve">
<g>
	<path fill="#D7598B" d="M102.61,112.04c-0.25-2.11-2.38-2.38-4.27-3.05c-0.58-0.21-1.1-0.52-1.73-0.61
		c-0.89-0.12-1.94-0.25-2.3,0.67c-0.24,0.62-0.43,1.26-0.7,1.88c-0.3,0.71-0.68,1.37-0.93,2.1c-0.49,1.45-0.88,2.99-1.3,4.47
		c-0.62,2.23-2.58,3.2-4.41,4.33c-0.74,0.45-2.22,0.96-2.27,2c-0.13,2.73,3.05,2.4,4.93,2.4c1.56,0,3.12-0.2,4.64-0.53
		c0.92-0.21,1.99-0.26,2.83-0.7c0.76-0.4,1.24-0.92,1.76-1.57c1.09-1.36,1.36-3.1,1.48-4.78c0.06-0.79,0.07-1.48-0.04-2.24
		c-0.2-1.33,0.73-0.58,1.58-0.73c0.35-0.06,0.7-2.52,0.73-2.93C102.64,112.48,102.63,112.25,102.61,112.04z"/>
	<path fill="#D7598B" d="M48.77,121.23c-0.14-1.19-0.4-2.75-1.12-3.02c-0.71-0.27-1.65-0.18-2.41-0.25c-1.16-0.12-2.33-0.25-3.5-0.4
		c-1.13-0.15-2.33-0.25-3.47-0.28c-0.67-0.02-1.57-0.17-2.13,0.23c-0.33,0.24-0.4,0.55-0.66,0.81c-1.65,1.65-3.85,2.63-6.01,3.43
		c-1.32,0.48-3.63,0.82-4.05,2.4c-0.97,3.67,9.54,3.2,11.51,2.81c1.11-0.22,2.22-0.47,3.3-0.83c0.54-0.18,1.05-0.43,1.57-0.65
		c0.28-0.12,0.98-0.55,1.29-0.48c0.32,0.08,0.4,0.65,0.73,0.83c0.35,0.18,0.78,0.22,1.17,0.22c0.87,0.02,1.66-0.15,2.5-0.38
		c1.57-0.42,1.56-2.01,1.4-3.33C48.86,122.07,48.83,121.67,48.77,121.23z"/>
	<g>
		<path fill="#D7598B" d="M48.04,63.66c-0.08,0.41-0.16,0.82-0.23,1.23c-0.26,1.38-0.54,2.76-0.83,4.13
			c-0.23,1.1-0.29,2.26-0.53,3.37c-0.19,0.88-0.59,1.73-0.58,2.65c0.01,1.4,1.45,1.38,2.53,1.52c1.78,0.22,3.78,0.27,5.56,0.33
			c2.74,0.09,5.53,0.05,8.27,0c1.35-0.03,1.25-0.6,1.51-1.84c0.66-3.23,1.38-6.42,1.61-9.7c0.15-2.26,0.32-4.5,0.02-6.73
			c-0.05-0.35-0.26-0.56-0.29-0.91c-0.67-0.11-1.17,0.2-1.71,0.54c-0.71,0.46-1.39,0.7-2.14,1.08c-1.44,0.72-2.99,1.39-4.53,0.53
			c-0.73-0.41-1.22-1.08-1.86-1.61c-0.98-0.8-1.93-1.63-2.83-2.5c-0.48-0.46-0.96-1.13-1.7-1.18c-0.61-0.03-1.17,4.18-1.3,4.71
			C48.66,60.71,48.33,62.19,48.04,63.66z"/>
		<g>
			<path fill="#FCC21B" d="M67.59,57.67c-0.05-1.07-0.17-2.18-0.05-3.2c0.04-0.34,0.25-0.3,0.49-0.51c0.32-0.28,0.6-0.67,0.9-0.98
				c0.5-0.5,0.98-1.02,1.47-1.52c0.2-0.2,0.28-0.41,0.44-0.62c0.17-0.23,0.44-0.33,0.63-0.53c2.2-2.27,4.89-2.43,7.86-1.98
				c1.3,0.19,2.6,0.76,3.85,1.24c1.72,0.66,3.56,1.37,5.12,2.36c4.53,2.88,7.51,7.38,9.42,12.31c0.74,1.93,1.35,3.93,1.73,5.97
				c0.24,1.28,0.53,2.53,0.6,3.85c0.02,0.51-0.15,0.92-0.24,1.42c-0.08,0.43-0.19,0.78-0.6,1c-0.49,0.27-1.14,0.16-1.69,0.16
				c-1.76,0-3.53-0.07-5.28-0.08c-1.15-0.02-2.39-0.31-2.55-1.6c-0.46-3.68-0.24-9.08-2.93-12.1c-1.27-1.43-2.68-2.66-4.49-3.21
				c-1.09-0.33-4.17-1.49-4.98-0.22c-0.51,0.79-0.27,1.8-0.24,2.67c0.1,1.93,0.22,3.86,0.4,5.78c0.3,3.17,0.89,6.28,1.85,9.31
				c0.46,1.45,1.11,2.82,1.62,4.25c0.91,2.57-4.06,2.83-5.61,3.27c-1.43,0.4-2.86,0.76-4.32,0.98c-3.22,0.49-3.09-3.02-3.36-5.21
				c-0.49-4.03-0.59-7.92-0.41-11.97c0.15-3.33,0.37-6.68,0.39-10.02C67.6,58.22,67.6,57.95,67.59,57.67z"/>
			<path fill="#FCC21B" d="M34.81,20.19c0.58-0.05,1.18,0,1.76,0c1.77,0,3.68-0.07,5.44,0.14c0.77,0.09,0.77,0.83,0.75,1.44
				c0,0.35,0.09,0.67,0.07,1.02c-0.03,0.53-0.06,1.06-0.08,1.6c-0.02,1.12-0.04,2.25,0.04,3.37c0.13,1.98,0.45,3.96,1.01,5.87
				c0.55,1.89,1.36,3.7,2.45,5.34c0.54,0.82,1.15,1.62,1.84,2.32c0.23,0.23,0.69,0.58,0.75,0.93c0.03,0.25-0.08,0.75-0.14,0.99
				c-0.06,0.3-0.27,0.58-0.32,0.89c-0.1,0.58-0.2,1.18-0.27,1.77c-0.04,0.41,0,0.78-0.13,1.18c-0.16,0.49-0.35,0.97-0.49,1.47
				c-0.22,0.77-0.67,1.43-1.03,2.14c-0.32,0.62-0.42,1.27-0.71,1.9c-0.54,1.18-1.08,2.4-1.62,3.65c0.2-0.45-0.6-2.1-0.76-2.57
				c-0.33-0.98-0.7-1.95-1.11-2.91c-1.06-2.49-2.9-4.43-4.14-6.81c-2.1-4.01-3.48-8.45-4.05-12.93c-0.19-1.49-0.19-3.02-0.18-4.52
				c0-1.04-0.03-2.09,0-3.13c0.02-0.73,0.02-1.44,0.09-2.17c0.02-0.23,0.11-0.38,0.22-0.59C34.35,20.26,34.44,20.22,34.81,20.19z"/>
			<path fill="#FCC21B" d="M74.1,109.83c-1.91-1.41-3.6-3.03-4.85-4.85c-1.43-2.08-2.85-3.82-3.9-6.17
				c-1.41-3.18-2.29-6.66-4.1-9.66c-0.2-0.33-0.44-0.63-0.67-0.93c-0.25-0.34-0.4-0.73-0.66-1.07c-0.53-0.7-1.48-1.45-2.3-1.74
				c-0.69-0.24-1.58-0.34-1.57,0.65c0.01,1.01,1.48,2.18,0.43,3.14c-0.63,0.58-1.31,1.1-1.89,1.71c-0.9,0.95-2.03,2.01-2.66,3.18
				c-1.67,3.08-3.85,6.21-3.88,9.91c0,0.98,0.14,1.93,0.13,2.93c0,1.02,0.19,1.93,0.43,2.91c0.42,1.7,0.83,3.38,1.26,5.07
				c0.24,0.94,0.32,1.6,0.2,2.57c-0.1,0.8-0.28,0.94-0.99,1.19c-1.82,0.63-3.77,0.24-5.7,0.24c-1.64,0-3.29,0-4.91-0.17
				c-1.16-0.12-2.48-0.26-3.6-0.52c-0.86-0.21-0.75-0.52-0.82-1.27c-0.05-0.62-0.22-1.23-0.29-1.85c-0.07-0.61,0.08-1.07,0.15-1.66
				c0.12-1.12,0.15-2.37,0.17-3.5c0.02-1.61,0.16-3.22,0.35-4.82c0.34-2.87,0.81-5.78,1.7-8.53c0.99-3.06,2.79-5.77,4.84-8.2
				c1.91-2.27,4.55-7.22,7.64-8.33c2.3-0.83,5.34,0.05,7.72,0.1c0.88,0.02,1.77,0.03,2.65,0.03c1.31,0,2.62-0.23,3.93-0.2
				c0.52,0.01,1.34-0.06,1.78,0.3c0.61,0.49,0.32,2.07,0.42,2.75c0.21,1.59,0.55,3.67,1.6,4.94c1.65,1.99,4.45,1.38,6.7,0.86
				c0.46-0.11,0.9-0.12,1.36-0.19c0.36-0.05,0.65-0.17,1.02-0.13c0.84,0.08,1.62,5.12,1.9,5.95c0.65,1.9,1.64,4.15,3.42,5.25
				c2.19,1.35,4.3,2.43,6.8,3.1c0.29,0.08,0.58,0.15,0.88,0.22c0.85,0.21,1.71,0.31,2.55,0.53c0.63,0.16,1.23,0.39,1.85,0.56
				c1.24,0.34,1.86,0.85,2.1,2.15c0.4,2.17,0.35,4.17-0.6,6.18c-0.87,1.85-2.58,3.69-4.66,4.07c-1.55,0.28-2.65-0.64-4.05-1.03
				C82.07,114.39,77.68,112.48,74.1,109.83z"/>
		</g>
		<path fill="#FCD4B5" d="M93.48,86.9c-0.44-0.11-0.84-0.27-1.12-0.55c-0.47-0.47-0.6-1.18-1.22-1.53
			c-0.48-0.26-0.96-0.15-1.46-0.36c-1.66-0.7-1.45-2.01-0.64-3.34c0.93-1.53,1.76-2.63,3.57-2.85c2.08-0.24,4.89-0.47,6.63,0.98
			c1.7,1.43,2.32,5.33,0.34,6.86c-1.09,0.84-2.7,1.11-4.05,1.02C94.96,87.08,94.17,87.07,93.48,86.9z"/>
		<path fill="#FCD4B5" d="M38.64,7.29c0.82-0.47,1.52-1.06,1.83-2.11c0.25-0.83,0.5-1.71,0.82-2.52c0.58-1.52,1.83-2.62,3.03-1.25
			c1.38,1.58,0.54,5.37,0.54,7.23c0,4.88,0.04,8.63-5.52,9.49c-1.73,0.27-4.5,0.03-5.36-1.86c-0.99-2.19-0.25-4.63,0.98-6.57
			C35.8,8.4,37.36,8,38.64,7.29z"/>
		<g>
			<g>
				<path fill="#FCD4B5" d="M78.45,32.96c0,8.25-7.08,13.84-15.81,13.84s-15.81-5.59-15.81-13.84c0-8.24,7.08-16.02,15.81-16.02
					S78.45,24.72,78.45,32.96z"/>
			</g>
			<path fill="#2F2F2F" d="M53.15,33.41c-0.01-0.84,0.36-1.68,1.16-2.25c0.89-0.62,2.46-0.65,3.43-0.17c1.29,0.62,1.7,2.28,1.12,3.5
				c-0.75,1.6-2.83,2.06-4.36,1.25C53.63,35.28,53.17,34.39,53.15,33.41z"/>
			<path fill="#2F2F2F" d="M72.12,33.41c0.01-0.84-0.37-1.68-1.17-2.25c-0.89-0.62-2.45-0.65-3.43-0.17c-1.3,0.62-1.7,2.28-1.13,3.5
				c0.75,1.6,2.83,2.06,4.36,1.25C71.63,35.28,72.1,34.39,72.12,33.41z"/>
		</g>
		<path fill="#855C52" d="M46.11,19.73c-1.2,2.75-1.78,5.92-1.58,8.92c0.07,1.04,0.25,2.07,0.6,3.06c0.15,0.42,0.25,0.81,0.64,1.06
			c1.22,0.77,1.33-0.23,1.66-1.23c0.75-2.25,1.58-4.51,3.35-6.18c2.31-2.19,4.95-1.36,7.76-0.93c2.65,0.41,5.19,0.4,7.85,0.12
			c2.59-0.27,5.34-0.41,7.65,1.02c0.38,0.23,0.72,0.55,1,0.9c0.09,0.11,0.17,0.23,0.25,0.35c0.96,1.41,1.57,3.17,1.9,4.83
			c0.19,0.97-0.1,2.73,0.92,3.31c2.52,1.42,3.71-3.85,3.92-5.24c0.27-1.85,0.4-3.88,0.02-5.73c-0.56-2.76-1.87-5.28-3.73-7.38
			c-1.8-2.05-3.91-3.75-6.4-4.9c-6.62-3.08-17.3-5.26-22.27,1.78c-1.27,1.79-2.32,3.74-3.27,5.72
			C46.27,19.38,46.19,19.55,46.11,19.73z"/>
	</g>
	<path fill="#FCD4B5" d="M59.61,54.76c-0.74,0.09-1.22-0.36-1.45-1.03c-0.42-1.2-0.6-2.47-0.87-3.7c1.69,0.4,3.48,0.63,5.35,0.63
		c1.08,0,2.13-0.09,3.16-0.23c-0.12,0.08-0.25,0.16-0.36,0.25C63.84,51.97,61.78,54.5,59.61,54.76z"/>
	<path fill="#FCC21B" d="M42.32,59.41c-3.52,6.3-6.8,12.36-8.85,19.31c-0.65,2.22-1.09,3.71,1.1,4.78c1.07,0.52,2.27,0.74,3.43,0.93
		c0.74,0.12,2.4,0.68,3.09,0.31c0.42-0.22,0.7-0.94,0.96-1.32c0.47-0.68,0.94-1.5,1.33-2.24c0.27-0.51,0.8-1.07,0.94-1.63
		c0.16-0.71-0.54-1.49-0.69-2.17c-0.27-1.2,0.08-2.61,0.32-3.8c0.62-3.04,0.97-6.13,1.62-9.17c0.8-3.68,1.72-7.33,2.46-11.03
		c0.12-0.53,0.25-1.1,0.32-1.64c0.05-0.44,0.16-0.9,0.11-1.36c-0.04-0.3-0.18-0.54-0.38-0.8c-0.3-0.4-0.73-0.53-1.14-0.8
		c-0.31-0.2-0.21-0.19-0.45,0.09c-0.32,0.38-0.2,0.68-0.32,1.12c-0.12,0.43-0.28,0.85-0.4,1.28c-0.19,0.61-0.35,1.24-0.56,1.84
		C44.41,55.26,43.44,57.4,42.32,59.41z"/>
	<path fill="#D7598B" d="M46.55,43.86c-0.38,0.33-0.74,0.69-1.12,1.02c-0.68,0.59-1.67,1.15-1.93,2.07
		c-0.13,0.49,0.07,0.87,0.5,1.08c0.57,0.28,1.12,0.62,1.68,0.94c3.22,1.85,6.93,3.9,9.53,6.6c0.3,0.31,1.01,1.19,0.97,0.26
		c-0.02-0.65-0.17-1.26-0.3-1.89c-0.3-1.52-0.53-3.09-1.2-4.51c-1.23-2.62-3.97-4.14-5.34-6.65c-0.1-0.19-0.23-0.77-0.5-0.81
		c-0.28-0.04-0.49,0.49-0.68,0.63c-0.42,0.32-0.82,0.63-1.23,0.95C46.8,43.64,46.67,43.75,46.55,43.86z"/>
	<path fill="#D7598B" d="M62.45,56.31c-0.03-0.16,0.2-0.42,0.82-0.85c3.12-2.18,5.75-5.01,8.46-7.73c0.36-0.36,0.73-0.92,1.16-1.17
		c1.02-0.59,2.49,1.75,2.87,2.46c0.42,0.8,1.02,1.48,1.52,2.23c0.35,0.53,1.19,1.47,1.01,2.15c-0.32,1.27-4.27,1.39-5.27,1.56
		c-2.68,0.46-5.38,0.84-8.07,1.27C64.1,56.38,62.51,56.69,62.45,56.31z"/>
</g>
</svg>
