<?xml version="1.0" encoding="utf-8"?>
<!-- Generator: Adobe Illustrator 16.0.0, SVG Export Plug-In . SVG Version: 6.00 Build 0)  -->
<!DOCTYPE svg PUBLIC "-//W3C//DTD SVG 1.1//EN" "http://www.w3.org/Graphics/SVG/1.1/DTD/svg11.dtd">
<svg version="1.1" id="レイヤー_1" xmlns="http://www.w3.org/2000/svg" xmlns:xlink="http://www.w3.org/1999/xlink" x="0px"
	 y="0px" width="128px" height="128px" viewBox="0 0 128 128" enable-background="new 0 0 128 128" xml:space="preserve">
<g>
	<g>
		<g>
			<g>
				<g>
					<g>
						<g>
							<path fill="#FCD4B5" d="M111.39,78.62c-0.76-14.11-3.02-28.63-14.05-37.66c-8.91-7.3-21.48-11.03-33.79-11
								c-12.31-0.03-24.88,3.7-33.8,11c-11.03,9.03-13.27,23.54-14.03,37.66c-0.72,13.39,4.08,26.89,13.42,36.21
								c5.17,5.16,11.61,8.66,18.23,10.55c2.52,0.73,9.03,2.4,15.86,2.4c6.83,0,13.98-1.68,16.49-2.4
								c6.63-1.89,13.07-5.39,18.24-10.55C107.31,105.51,112.11,92.02,111.39,78.62z"/>
						</g>
					</g>
				</g>
				<g>
					<g>
						<path fill="#2F2F2F" d="M46.89,81.53c0,3.93-2.9,7.12-6.47,7.12c-3.56,0-6.46-3.19-6.46-7.12c0-3.94,2.9-7.12,6.46-7.12
							C43.99,74.41,46.89,77.6,46.89,81.53z"/>
					</g>
				</g>
				<g>
					<g>
						<path fill="#2F2F2F" d="M79.47,81.53c0,3.93,2.9,7.12,6.46,7.12c3.57,0,6.46-3.19,6.46-7.12c0-3.94-2.89-7.12-6.46-7.12
							C82.37,74.41,79.47,77.6,79.47,81.53z"/>
					</g>
				</g>
			</g>
			<path fill="#855C52" d="M64.76,106.02c1.88,0.27,3.72,0.98,5.81,1.74c0.8,0.29,1.54,0.68,2.34,0.98
				c4.82,1.78,9.99,2.69,13.89-1.41c0.51-0.53,1-1.16,0.98-1.9c-0.05-1.65-1.28-2.04-2.69-2.12c-2.94-0.18-5.43-1.93-7.74-3.59
				c-6.36-4.54-13.85-6.58-21.41-3.75c-2.12,0.79-4,2.13-5.75,3.55c-1.83,1.48-3.27,3.45-5.53,4.33c-0.76,0.3-1.62,0.27-2.34,0.62
				c-1.68,0.81-1.18,2.89-0.21,4.04c0.38,0.46,0.86,1,1.42,1.25c1.83,0.8,3.92,1.18,5.91,0.92c3.6-0.47,6.62-2.64,9.92-3.98
				C61.34,105.9,63.06,105.78,64.76,106.02z"/>
		</g>
		<path fill="#2F2F2F" d="M63.72,95.59c-0.5,0.05-1.02,0.06-1.51,0.14c-0.59,0.09-1.12,0.2-1.7,0.35c-1.12,0.28-2.24,0.69-3.41,0.8
			c-0.94,0.09-1.89-0.01-2.83-0.06c-0.38-0.02-0.75,0.02-1.1-0.11c-0.3-0.12-0.6-0.27-0.88-0.43c-1.12-0.67-1.88-1.74-2.09-3.04
			c-0.42-2.51,1.07-4.72,2.35-6.74c1.42-2.23,2.9-4.44,4.19-6.75c1.51-2.69,2.52-5.65,4.3-8.18c0.65-0.93,1.53-1.83,2.77-1.48
			c1.58,0.45,1.45,2.45,1.15,3.72c-1.34,5.73-4.92,10.9-7.77,15.99c-0.5,0.89-0.98,2,0.32,2.31c1.91,0.45,3.85,0,5.79,0.05
			c1.17,0.03,2.41,0.31,3.11,1.34c0.34,0.5,0.33,1.13-0.11,1.56c-0.16,0.16-0.29,0.29-0.5,0.38c-0.56,0.22-1.22,0.04-1.8,0.11
			C63.91,95.58,63.81,95.59,63.72,95.59z"/>
	</g>
	<g>
		<path fill="#FFFFFF" d="M16.75,92.1c0,0,5.08-10.57,15.25-22.36c13.24-15.38,27.64-26.02,27.64-26.02s14.23,6.1,31.71,22.36
			c16,14.88,20.33,26.63,20.33,26.63s7.09-6.93,9.76-15.65c7.32-23.99-1.1-73.18-57.33-73.18C7.22,3.88-0.94,54.29,6.51,77.89
			C9.11,86.16,16.75,92.1,16.75,92.1z"/>
		<path fill="#78A3AD" d="M109.29,95.48c-0.46-0.4-5.39-12.74-20.42-26.72C75.74,56.55,64.43,50.2,60.09,48
			c-4.16,3.28-15.15,12.33-25.32,24.13c-9.73,11.3-16.9,23.54-17.18,23.53c-2.66-0.11-5.31-2.16-7.04-3.92
			c-2.74-2.8-5.74-7.08-7.53-12.75c-4.56-14.47-3.6-38.05,9.29-55.65C20.05,12.79,35.31,0.22,64.11,0.22
			c28.58,0,43.75,12.38,51.44,22.77c12.82,17.31,14.15,40.24,9.39,55.15c-2.59,8.09-6.64,13.53-9.56,15.6
			C112.11,96.05,109.57,95.73,109.29,95.48z M64.11,7.54c-20.66,0-36.11,6.78-45.9,20.13C6.82,43.2,5.97,64.03,9.99,76.79
			c1.2,3.82,3.73,7.13,5.8,9.38c2.49-4.3,6.95-11.3,13.42-18.82c13.36-15.51,27.65-26.13,28.25-26.57c1.05-0.77,2.43-0.93,3.62-0.42
			c0.61,0.26,15.02,6.54,32.77,23.05c10.11,9.41,15.76,17.66,18.65,22.73c1.93-2.57,4.23-6.18,5.44-10.14
			c3.9-12.79,2.98-33.47-8.27-48.66C99.94,14.2,84.62,7.54,64.11,7.54z"/>
	</g>
	<path fill="#78A3AD" d="M106.53,16.71c-0.77-1.87-2.91-2.76-4.78-1.99C73.84,26.21,57.87,40.4,57.2,41
		c-1.5,1.35-1.63,3.66-0.28,5.17c0.72,0.81,1.71,1.21,2.73,1.21c0.87,0,1.74-0.3,2.44-0.93c0.16-0.13,15.79-13.97,42.46-24.96
		C106.41,20.72,107.29,18.58,106.53,16.71z"/>
</g>
</svg>
