<?xml version="1.0" encoding="utf-8"?>
<!-- Generator: Adobe Illustrator 16.0.0, SVG Export Plug-In . SVG Version: 6.00 Build 0)  -->
<!DOCTYPE svg PUBLIC "-//W3C//DTD SVG 1.1//EN" "http://www.w3.org/Graphics/SVG/1.1/DTD/svg11.dtd">
<svg version="1.1" id="レイヤー_1" xmlns="http://www.w3.org/2000/svg" xmlns:xlink="http://www.w3.org/1999/xlink" x="0px"
	 y="0px" width="128px" height="128px" viewBox="0 0 128 128" enable-background="new 0 0 128 128" xml:space="preserve">
<g>
	<g>
		<rect x="0.34" y="36.06" fill="#FCC21B" width="2.89" height="24.98"/>
		<path fill="#FCC21B" d="M3.23,36.06L2.65,44.5H2.09l0.28,4.05l-0.28,4.05h0.56l0.58,8.44c0,0,4.59-3.74,16.92-3.74V39.8
			C7.82,39.8,3.23,36.06,3.23,36.06z"/>
	</g>
	<g>
		<path fill="#FCC21B" d="M80.01,67.93c-0.18,0.08,0.22,1.35,0.27,1.45c0.36,0.91,1.21,1.52,1.62,2.4c0.5,1.09,0.53,2.33,0.09,3.44
			c-0.28,0.71-0.92,1.22,0.07,1.69c0.6,0.29,0.92-0.34,1.25-0.72c0.34-0.4,0.64-0.83,0.87-1.3c0.68-1.36,0.7-2.9,0.16-4.32
			c-0.06-0.16-0.13-0.32-0.21-0.48c0,0,2.62-1.51,0.01-3.96C84.14,66.13,80.02,67.93,80.01,67.93z"/>
		<path fill="#FCC21B" d="M66.26,67.62c0,0,1.54,0.05,2.58,2.19c0.35,0.73,0.32,4.66,2.93,7.82c1.34,1.62,3.91,2.92,7.24,3.34
			c6.09,0.77,9.23-1.04,11.65-4.48c1.21-1.71,2.47-1.92,3.74-1.08l1.02-1.27l-4.81-4.02l-1.05,1.51c0,0,0.57,0.52,0.08,1.68
			c-1.01,2.41-3.61,6.66-10.73,5.44c-6.63-1.13-6.66-4.7-6.92-6.39c-0.25-1.69,0.03-4.51,0.91-4.46l-0.12-1.19l-6.4-0.12
			L66.26,67.62z"/>
		<path fill="#FCC21B" d="M55.6,65.81c0,0,1.18,1.66,3.38,1.66c2.2,0,11.24,0.17,17.24,0.68c6,0.51,8.03,1.01,8.03,1.01l0.51-2.96
			C84.77,66.2,63.13,63.73,55.6,65.81z"/>
		<g>
			<defs>
				<path id="SVGID_1_" d="M43.34,62.06l4.82,3.79c0,0,34.19-0.58,39.65,2.46c5.45,3.04,10.15,8.19,11.92,17.31
					c1.28,6.56,6.15,8.28,10.4,8.21c1.66-0.03,7.14,0.6,13.02-6.41c3.98-4.75,7.87-14.04-0.24-20.39
					c-10.15-7.93-16.43-16.28-21.48-20.09c-7.14-5.38-14.5-6.78-24.9-7L43.34,62.06z"/>
			</defs>
			<use xlink:href="#SVGID_1_"  overflow="visible" fill="#855C52"/>
			<clipPath id="SVGID_2_">
				<use xlink:href="#SVGID_1_"  overflow="visible"/>
			</clipPath>
			<path clip-path="url(#SVGID_2_)" fill="#FCC21B" d="M99.31,88.77c0.16,0.23,1.28,0.28,1.53,0.32c1.19,0.19,2.41,0.19,3.61,0.01
				c4.39-0.65,6.85-3.59,6.5-8.01c-0.11-1.46-0.74-3.35,0.04-4.71c0.28-0.5,0.96-0.84,1.52-0.84c2.21-0.04,4.13,1.86,6.43,1.9
				c4.93,0.1,7.48-4.08,7.58-8.54c0,0,2.46,2.79,2.46,7.11c0,0-0.85,11.66-8.71,16.48C120.27,92.49,108.44,101.96,99.31,88.77z"/>
		</g>
		<g>
			<rect x="9.58" y="39.77" fill="#FCC21B" width="67.07" height="17.53"/>
		</g>
		<g>
			<g>
				<rect x="24.76" y="60.38" fill="#FCC21B" width="0.9" height="7.16"/>
				<path fill="#FCC21B" d="M25.66,60.38l-0.14,2.01h-0.21l0.11,1.57l-0.11,1.57h0.21l0.14,2.01c0,0,1.43-1.69,5.27-1.69v-0.33
					v-3.13v-0.33C27.09,62.06,25.66,60.38,25.66,60.38z"/>
			</g>
			<path fill="#FCC21B" d="M48.17,65.85H28.48v-3.79h14.36c0,0,2.37-0.09,3.63,0.59C47.74,63.33,48.17,65.85,48.17,65.85z"/>
		</g>
		<path fill="#855C52" d="M78.59,62.06H31.8c0,0-7.86,0.76-7.86-5.27c0-1.45-0.07-3.7-0.07-4.45c0-2.1,2.22-1.83,2.22-1.83h52.49
			V62.06z"/>
		<path fill="#FCC21B" d="M72.59,41.13l1.62-5.54c0,0,0.52-1.82,2.02-1.35c1.5,0.47,0.98,2.63,0.98,2.63l-1.24,5.43L72.59,41.13z"/>
		<path fill="#FCC21B" d="M73.7,37.35c0,0-0.35,1.73-1.82,0.67c-0.68-0.48-2.01-1.29-4.61-1.03c-2.03,0.2-4.12,1.79-4.37,3.49
			l0.13,3.31h12.2v-6.17L73.7,37.35z"/>
		<path fill="#FFFFFF" d="M4.11,39.83c0,0,6.1,3.48,15.27,3.33c0,0,0.19,2.47,0,2.66c-0.19,0.19-8.04,0.12-15.27-0.93V39.83z"/>
		<rect x="19.38" y="43.07" fill="#FFFFFF" width="43.7" height="2.73"/>
		<rect x="17.7" y="39.75" fill="#F79329" width="2.92" height="17.62"/>
		<rect x="28.83" y="61.65" fill="#F79329" width="1.78" height="4.54"/>
		<circle fill="#FCC21B" cx="86.63" cy="49.54" r="4.06"/>
		<path fill="#FCC21B" d="M96.11,56.17c-0.63,0-1.25-0.24-1.73-0.72c-3.39-3.44-7.17-3.3-7.21-3.31c-1.3,0.06-2.49-0.94-2.57-2.28
			c-0.08-1.34,0.94-2.49,2.28-2.57c0.22-0.02,5.98-0.3,10.96,4.75c0.94,0.96,0.93,2.49-0.02,3.43
			C97.34,55.94,96.72,56.17,96.11,56.17z"/>
		<circle fill="#F79329" cx="86.63" cy="49.54" r="1.52"/>
	</g>
</g>
</svg>
