<?xml version="1.0" encoding="utf-8"?>
<!-- Generator: Adobe Illustrator 16.0.0, SVG Export Plug-In . SVG Version: 6.00 Build 0)  -->
<!DOCTYPE svg PUBLIC "-//W3C//DTD SVG 1.1//EN" "http://www.w3.org/Graphics/SVG/1.1/DTD/svg11.dtd">
<svg version="1.1" id="レイヤー_1" xmlns="http://www.w3.org/2000/svg" xmlns:xlink="http://www.w3.org/1999/xlink" x="0px"
	 y="0px" width="128px" height="128px" viewBox="0 0 128 128" enable-background="new 0 0 128 128" xml:space="preserve">
<g>
	<g>
		<path fill="#FCC21B" d="M108.14,94.01c0,14.81-24.15,26.83-53.93,26.83c-29.79,0-53.93-12.01-53.93-26.83
			c0-14.81,24.14-26.83,53.93-26.83C83.99,67.19,108.14,79.2,108.14,94.01z"/>
		<path fill="#FFFFFF" d="M103.53,94.01c0,12.11-22.09,21.93-49.32,21.93c-27.24,0-49.32-9.82-49.32-21.93
			c0-12.11,22.08-21.93,49.32-21.93C81.45,72.09,103.53,81.9,103.53,94.01z"/>
	</g>
	<path fill="#BDCF46" d="M91.48,83.23c0.2,0.02,0.4,0.03,0.6,0.04c1.79,0,3.84,1.12,4.37,2.99c0.2,0.7,0.01,1.43-0.18,2.11
		c-0.33,1.17-1.03,1.33-1.64,2.24c-1.37,2.05,1.27,2.47,2.26,3.4c1.62,1.54,0.81,3.73-1.11,4.36c-0.9,0.29-4.68,0.12-2.44,2.16
		c1.44,1.31,1.52,2.5-0.29,3.65c-1.91,1.22-3.1-0.37-5.01-0.25c-1.26,0.07-0.6,2.84-1.63,3.63c-2.23,1.72-4.99-0.26-7.19-0.93
		c-0.64-0.2-8.66-2.29-8.69-1.44c0.01-0.31,0.31-0.51,0.46-0.76c0.26-0.41,0.45-0.89,0.64-1.33c0.33-0.76,0.74-1.48,1.14-2.2
		c0.17-0.31,0.36-0.61,0.45-0.95c0.07-0.28,0.07-0.54,0.19-0.83c1.69-4.09,6.68-3.66,8.88-6.98c1.24-1.87,1.78-4.1,2.93-6.01
		c0.91-1.51,2.26-3.17,4.12-3.14C90.06,82.99,90.77,83.15,91.48,83.23z"/>
	<path fill="#BDCF46" d="M16.97,87.51c-0.46-0.02-0.93,0.01-1.26,0.04c-1.1,0.11-2.2,0.16-3.26,0.54c-0.6,0.21-1.18,0.56-1.72,0.91
		c-1.12,0.74-1.31,2.64-0.7,3.77c0.54,0.98,1.74,1.46,2.17,2.52c0.56,1.37-0.61,1.43-1.1,2.49c-0.25,0.55-0.26,1.15-0.15,1.75
		c0.33,1.83,1.42,2.53,3.07,2.84c0.96,0.18,2.66,0.04,3.21,1c0.47,0.82-0.12,1.79,0.27,2.65c0.54,1.17,1.83,1.67,3.01,1.7
		c1.15,0.03,2.11-0.45,3.13-0.88c0.81-0.35,2.34-0.68,2.91,0.27c0.51,0.85,0.33,1.49,1.31,2.03c0.72,0.4,1.65,0.49,2.46,0.49
		c5.48,0,8.68-5.44,13.04-7.95c0.32-0.19,1.88-0.8,1.88-1.27c-0.01-0.47-3.88-1.16-4.3-1.29c-1.66-0.54-3.25-1.25-4.9-1.79
		c-4.36-1.44-9.03-2.24-12.81-5.07c-1.18-0.88-2.19-2-3.29-3c-0.55-0.5-1.21-1.24-1.88-1.55C17.8,87.58,17.39,87.53,16.97,87.51z"/>
	<g>
		<g>
			<path fill="#F79329" d="M109.41,26.49c-0.91-0.2-1.85,0.18-2.74-0.07c-1.38-0.4-2.41-1.23-3.93-1.33
				c-1.46-0.08-2.93,0.26-4.15,1.07c-0.13,0.09-0.27,0.2-0.41,0.31c-0.49,0.43-0.97,1-1.32,1.45c-0.32,0.41-0.59,0.96-0.88,1.44
				c-0.66,1.08-1.11,2.31-2.05,3.19l-0.17,0.16c-0.93,0.81-2.1,1.33-3.14,1.99c-1.6,1.02-3.21,1.86-4.9,2.71
				c-0.71,0.37-1.35,0.78-2,1.23c-1.89,1.32-2.45,3.49-2.62,5.69c-0.08,1.06,0.14,2.07,0.36,3.1c0.24,1.16,0.89,2.2,1.59,3.12
				c0.31,0.41,0.6,0.84,0.98,1.21c0.42,0.42,0.99,0.77,1.5,1.08c0.84,0.52,1.9,1.15,2.89,1.26c1.5,0.17,3.25,0.28,4.57-0.61
				c0.64-0.44,1.35-0.74,1.99-1.19c0.72-0.5,1.42-1.07,2.21-1.45c1.43-0.69,2.79-1.89,4.43-1.97c0.88-0.04,1.82,0.27,2.61,0.61
				c2.15,0.93,4.01,2.34,6.48,1.93c1.35-0.22,2.59-0.8,3.59-1.67c0.52-0.45,0.97-0.98,1.35-1.57c0.59-0.93,0.83-1.92,0.8-3
				c-0.02-0.74-0.23-1.63,0.01-2.35c0.11-0.31,0.28-0.59,0.41-0.89c0.71-1.72,1.01-3.4,0.21-5.14c-0.3-0.66-0.81-1.18-1.28-1.73
				c-0.29-0.33-0.83-0.9-0.83-1.38c0.03-0.81-0.02-1.6-0.16-2.4C114.43,28.96,111.57,26.97,109.41,26.49z"/>
		</g>
		<path fill="#FFFFFF" d="M111.08,31.96c0.23,0.55,0.36,1.24,0.13,1.61c-0.19,0.3-0.24,0.71-0.46,1.01
			c-0.29,0.4-0.74,0.63-1.18,0.82c-0.51,0.21-1.04,0.52-1.46,0.88c-0.26,0.22-0.76,0.5-0.62,0.89c0.12,0.35,0.45,0.44,0.75,0.31
			c1.29-0.54,3.05-1.39,4.34-0.39c0.11,0.12,0.21,0.24,0.29,0.34l0.07,0.08l0.25,0.29c0.18,0.2,0.43,0.49,0.49,0.6
			c0.11,0.24,0.31,0.68-0.27,2.09l-0.08,0.15c-0.03,0.06-0.07,0.15-0.11,0.21c-0.45,0.53-1.01,0.82-1.71,0.61
			c-0.65-0.19-1.69-0.37-2.31-0.05c-0.26,0.12-0.41,0.38-0.29,0.66c0.12,0.3,0.5,0.33,0.77,0.4c0.95,0.26,2.13,0.97,2.7,1.93
			c0.15,0.25,0.25,0.51,0.31,0.86c0.01,0.44-0.09,0.68-0.21,0.88c-0.18,0.29-0.4,0.55-0.64,0.76c-0.48,0.41-1.08,0.69-1.73,0.8
			c-0.67,0.11-1.45-0.25-2.76-0.91c-0.53-0.26-1.07-0.52-1.62-0.76c-1.56-0.69-2.96-0.98-4.27-0.92c-1.57,0.07-2.96,0.68-4.31,1.42
			c-1.17,0.65-2.38,1.26-3.47,2.03c-0.92,0.64-1.61,1.47-2.78,1.59c-0.68,0.07-1.33-0.08-1.97-0.16c-0.38-0.05-0.79-0.23-1.13-0.41
			c-0.23-0.12-0.53-0.25-0.75-0.42c-0.28-0.21-0.47-0.54-0.72-0.78c-0.25-0.25-0.44-0.42-0.61-0.77c-0.29-0.56-0.38-1.3-0.5-1.9
			c-0.06-0.34-0.19-0.69-0.16-1.04c0.03-0.29,0.07-0.55,0.07-0.86c0-0.61,0.08-1.15,0.36-1.69c0.43-0.8,1.18-1.01,1.93-1.37
			c1.22-0.62,2.43-1.27,3.65-1.96c0.52-0.3,1.04-0.59,1.58-0.94c0.3-0.19,0.6-0.37,0.91-0.54c0.83-0.46,1.77-1,2.67-1.79l0.29-0.25
			c1.11-1.04,1.73-2.21,2.23-3.16c0.14-0.27,0.28-0.55,0.44-0.81c0.12-0.19,0.24-0.4,0.36-0.62c0.08-0.15,0.21-0.39,0.27-0.46
			c0.45-0.57,0.72-0.84,0.83-0.92c1.16-0.98,4.24-0.44,4.17,1.41c-0.02,0.42-0.23,0.92-0.48,1.26c-0.22,0.31-0.52,0.59-0.5,1.01
			c0.02,0.32,0.39,0.55,0.72,0.42c0.39-0.15,0.74-0.88,0.98-1.2c0.66-0.92,1.72-1.93,2.93-1.89c0.77,0.03,1.63,0.36,2.17,0.91
			C110.79,31.39,110.95,31.66,111.08,31.96z"/>
		<path fill="#F79329" d="M30.47,71.94c-2.14-3.44-0.81-13.76,0.97-17c5.63-10.25,16-13.87,27.35-13.54
			c6.36,0.18,15.86,3.09,22.25,2.39c1.02-0.11,2.07-0.38,3.04-0.72c0.64-0.23,1.23-0.71,1.88-0.88c1.56-0.41,3.16,0.96,3.96,2.14
			c0.98,1.44,1.13,3.47,0.59,5.09c-0.49,1.48-1.41,1.83-2.85,2.18c-4.12,1.02-7.7,3.42-10.92,6.13
			c-6.26,5.28-11.31,11.87-17.82,16.88c-4.61,3.55-10.05,6.02-15.99,5.23C38.65,79.28,32.77,75.66,30.47,71.94z"/>
		<path fill="#855C52" d="M47.22,47.61c-0.01,0.17,0.2,0.28,0.63,0.28c4.86,0.11,9.9,0.12,14.8,0.72c2.56,0.31,5.11,0.79,7.59,1.49
			c0.81,0.23,3.17,1.39,3.84,0.66c0.95-1.04-2.57-2.57-3.2-2.88c-3.75-1.85-7.96-2.63-12.11-2.79c-3.7-0.13-8.01-0.17-11.17,2.06
			C47.36,47.33,47.24,47.48,47.22,47.61z"/>
		<g>
			<path fill="#FFFFFF" d="M117.33,37.38c-0.02,0-0.04,0.01-0.05,0.01c-0.3,0.03-0.63-0.04-0.95,0c-1.21,0.13-2.09,1.53-2.51,2.56
				c-0.15,0.38-0.32,1.16-0.66,1.4c-0.29,0.21-0.71,0.07-0.8-0.23c-0.12-0.4,0.1-0.75,0.24-1.1c0.16-0.39,0.25-0.92,0.16-1.33
				c-0.07-0.34-0.24-0.57-0.46-0.78l-0.24-0.19c-0.02-0.01-0.02-0.02-0.04-0.03c-0.28-0.05-0.56-0.1-0.79-0.14
				c-0.53-0.1-0.94-0.17-1.16-0.13c-0.69,0.13-1.29,0.44-1.7,0.9c-0.08,0.11-0.28,0.43-0.58,1.09c-0.04,0.09-0.11,0.35-0.15,0.51
				c-0.07,0.24-0.13,0.48-0.2,0.7c-0.09,0.29-0.16,0.59-0.24,0.89c-0.26,1.04-0.58,2.33-1.41,3.6l-0.22,0.32
				c-0.69,0.98-1.47,1.73-2.17,2.38c-0.26,0.24-0.51,0.48-0.76,0.74c-0.44,0.46-0.88,0.87-1.32,1.29c-1.01,0.97-2.03,1.89-3.06,2.78
				c-0.23,0.2-0.54,0.46-0.78,0.71c0.22,0.82,0.58,1.96,1.04,2.46c1.35,1.46,2.7,2.58,4.16,3.46l0.3,0.17l0.17,0.1
				c0.4,0.22,1.07,0.6,1.5,0.75c0.17-0.14,0.38-0.34,0.59-0.55c0.22-0.22,0.45-0.48,0.65-0.7c0.53-0.6,1.16-1.27,1.89-1.87
				c0.24-0.2,0.52-0.48,0.82-0.78c0.98-0.97,2.31-2.31,4.32-2.9c1.26-0.37,2.68-0.42,4.37-0.14c0.59,0.11,1.18,0.23,1.75,0.35
				c1.43,0.32,2.27,0.49,2.9,0.22c0.61-0.26,1.12-0.68,1.48-1.2c0.19-0.27,0.34-0.56,0.44-0.89c0.08-0.23,0.11-0.47,0-0.9
				c-0.02-0.03-0.02-0.04-0.03-0.07c-0.11-0.26-0.28-0.49-0.48-0.7c-0.78-0.79-2.1-1.19-3.08-1.22c-0.28,0-0.65,0.06-0.85-0.2
				c-0.19-0.25-0.1-0.53,0.12-0.72c0.52-0.46,1.58-0.53,2.25-0.5c0.73,0.04,1.2-0.38,1.52-1c0.02-0.08,0.04-0.18,0.05-0.24
				l0.04-0.16c0.23-1.51-0.07-1.89-0.24-2.09c-0.08-0.09-0.4-0.31-0.62-0.47l-0.31-0.22l-0.09-0.06c-0.11-0.08-0.23-0.17-0.37-0.26
				c-1.49-0.67-2.99,0.59-4.12,1.42c-0.26,0.2-0.6,0.19-0.8-0.12c-0.23-0.35,0.19-0.74,0.39-1.02c0.32-0.45,0.76-0.87,1.21-1.2
				c0.38-0.29,0.76-0.63,0.95-1.08c0.15-0.34,0.1-0.75,0.21-1.09c-0.12-0.58-0.29-1.1-0.49-1.56
				C118.96,38.04,118.17,37.61,117.33,37.38z"/>
			<path fill="#F79329" d="M116.18,33.47c-0.93,0.03-1.76,0.61-2.68,0.59c-1.44-0.05-2.64-0.62-4.14-0.35
				c-1.43,0.27-2.79,0.95-3.77,2.04c-0.11,0.12-0.21,0.25-0.32,0.4c-0.37,0.53-0.7,1.2-0.93,1.72c-0.22,0.48-0.34,1.08-0.51,1.61
				c-0.38,1.21-0.52,2.5-1.22,3.58l-0.13,0.2c-0.71,1.01-1.72,1.8-2.57,2.69c-1.31,1.38-2.67,2.58-4.11,3.81
				c-0.38,0.33-0.77,0.67-1.12,1.04c-0.17,0.18-0.31,0.36-0.43,0.57c-0.12,0.2-0.28,0.3-0.41,0.48c-1.8,2.49-1.43,6.03,0.32,8.36
				c1.64,2.19,4.27,4.22,7.05,4.59c1.91,0.25,3.78-0.12,5.35-1.25c1.41-1.03,2.5-2.46,3.79-3.65c1.11-1.02,2.16-2.38,3.66-2.83
				c0.84-0.25,1.82-0.17,2.68-0.04c2.31,0.39,4.46,1.3,6.75,0.32c1.26-0.54,2.32-1.4,3.08-2.48c0.4-0.57,0.71-1.19,0.93-1.86
				c0.35-1.04,0.34-2.06,0.05-3.11c-0.19-0.7-0.62-1.53-0.55-2.28c0.04-0.33,0.13-0.64,0.19-0.96c0.28-1.84,0.16-3.54-1.04-5.04
				c-0.45-0.56-1.07-0.95-1.65-1.37c-0.37-0.26-1.03-0.68-1.13-1.15c-0.17-0.79-0.41-1.55-0.73-2.29
				C121.64,34.66,118.4,33.41,116.18,33.47z"/>
			<path fill="#FFFFFF" d="M119.06,38.42c0.22,0.26,0.39,0.53,0.47,0.74c0.45,1.12-0.16,2.24-1.06,2.92
				c-0.45,0.33-0.88,0.75-1.21,1.2c-0.2,0.28-0.62,0.66-0.39,1.02c0.2,0.31,0.54,0.31,0.8,0.12c0.91-0.69,2-1.61,3.21-1.61
				c1.14,0,2.14,0.71,2.47,1.81c0.35,1.15-0.04,2.97-1.54,2.89c-0.67-0.03-1.73,0.05-2.25,0.5c-0.22,0.19-0.31,0.47-0.12,0.72
				c0.19,0.26,0.56,0.2,0.85,0.2c1.97,0.04,4.68,1.6,3.15,3.79c-0.36,0.52-0.88,0.93-1.48,1.2c-0.63,0.27-1.47,0.1-2.9-0.22
				c-0.58-0.12-1.16-0.25-1.75-0.35c-1.68-0.28-3.11-0.23-4.37,0.14c-3.12,0.91-5.35,4.2-7.47,6.49c-0.47,0.51-1.38,1.06-2.05,1.25
				c-0.94,0.27-1.97,0.24-2.85-0.2c-0.79-0.38-1.38-0.82-1.94-1.49c-0.5-0.59-0.99-1.22-1.28-1.94c-0.29-0.71-0.27-1.44-0.26-2.2
				c0-0.48,0.09-1.01,0.3-1.45c0.1-0.21,0.25-0.39,0.35-0.59c0.46-0.89,1.41-1.49,2.14-2.15c1.22-1.09,2.34-2.27,3.52-3.4
				c0.7-0.65,1.48-1.4,2.17-2.38l0.22-0.32c0.82-1.27,1.15-2.56,1.41-3.6c0.08-0.3,0.15-0.6,0.24-0.89c0.07-0.22,0.13-0.46,0.2-0.7
				c0.05-0.17,0.12-0.43,0.15-0.51c0.3-0.66,0.5-0.98,0.58-1.09c0.41-0.46,1-0.77,1.7-0.9c0.97-0.19,2.46,0.16,2.69,1.27
				c0.08,0.42,0,0.95-0.16,1.33c-0.14,0.35-0.37,0.71-0.24,1.1c0.09,0.31,0.51,0.44,0.8,0.23c0.34-0.24,0.51-1.03,0.66-1.4
				c0.42-1.03,1.31-2.43,2.51-2.56C117.42,37.27,118.34,37.56,119.06,38.42z"/>
		</g>
		<path fill="#F79329" d="M71.95,50.05c-4.79-1.62-9.71-2.44-14.74-2.97C41.24,45.41,21.12,51.72,12.7,66.4
			c-2.48,4.31-3.68,11.34-2.77,16.24c2.12,11.29,11.42,18.06,22.5,18.89c1.95,0.15,3.14,3.19,4.45,4.37
			c3.53,3.15,9.48,2.93,13.88,2.96c7.98,0.05,16.25-6.24,21.87-11.33c5.31-4.81,9.75-10.43,13.91-16.23
			c3.65-5.1,7.55-10.8,4.66-17.23c-3.21-7.13-11.39-11.18-18.37-13.7C72.53,50.25,72.24,50.14,71.95,50.05z"/>
		<path fill="#F79329" d="M62.94,104.88c-3.55-1.94-4.6-6.77-4.64-10.47c-0.13-11.69,8.71-23.35,18.75-28.64
			c5.63-2.96,12.11-4.29,17.34-8.04c1.31-0.94,1.88-2.49,3.06-3.5c1.32-1.13,3.16-1.16,4.59-0.23c1.84,1.18,3.22,3.67,2.41,5.83
			c-0.93,2.47-3.1,4.23-4.45,6.44c-2.13,3.5-3.57,7.39-4.86,11.27c-2.53,7.63-4.39,16.13-9.7,22.43c-2.1,2.49-4.74,4.45-7.76,5.67
			C73.68,107.25,66.79,106.98,62.94,104.88z"/>
		<path fill="#855C52" d="M85.17,61.42c-0.67,1.21-4.01,1.3-5.21,1.57c-5.23,1.15-10.23,3.14-14.39,6.58
			c-3.2,2.65-5.55,6.17-6.89,10.09c-1.51,4.41-1.19,8.97-1.87,13.52c-0.06,0.4-0.34,1.38-0.69,1.54c-0.61,0.28-1.51-0.54-1.79-0.98
			c-0.3-0.5-0.75-0.93-0.98-1.47c-0.19-0.45-0.28-0.93-0.45-1.4c-3.61-9.98,0.41-20.99,9.43-26.38c2.46-1.47,5.36-2.91,8.12-3.68
			c2.73-0.77,5.58-0.97,8.39-1.15c0.96-0.06,6.44-0.42,6.38,1.65C85.22,61.34,85.2,61.38,85.17,61.42z"/>
		<path fill="#855C52" d="M35.67,99.14c0.27-0.15,0.54-0.33,0.76-0.5c2.33-1.79,5.02-1.25,7.86-0.9c0.44,0.06,1.96,0.49,2.34,0.08
			c0.38-0.42-0.24-0.88-0.57-1.16c-2.18-1.9-6.9-2.35-9.49-1.08c-0.83,0.41-2.4,1.8-2.43,2.77C34.12,99.66,34.92,99.54,35.67,99.14z
			"/>
		<g>
			<path fill="#FFFFFF" d="M43,62.5c1.7-1.64-1.34-3.68-2.93-2.97c-1.7,0.76-1.86,2.56-0.2,3.47C40.63,63.41,42.42,63.06,43,62.5z"
				/>
			<path fill="#FFFFFF" d="M14.72,78.96c2.58,3.58,6.55,0.44,3.44-1.73c-0.8-0.55-1.56-0.97-2.53-0.64
				C14.6,76.92,14.07,78.04,14.72,78.96z"/>
			<path fill="#FFFFFF" d="M32.95,68.15c0.93,0.47,2.43,1.07,3.24,0.03c1.25-1.61-1.26-4.07-2.89-3.59
				C31.49,65.13,31.3,67.3,32.95,68.15z"/>
			<path fill="#FFFFFF" d="M17.82,70.09c0.33,0.96,1.11,1.33,2.03,1.63c3.6,1.2,3.74-3.87-0.67-3.78
				C18.04,67.96,17.46,69.06,17.82,70.09z"/>
			<path fill="#FFFFFF" d="M23.3,63.01c0.45,0.92,1.27,1.17,2.21,1.37c3.72,0.73,3.22-4.31-1.14-3.67
				C23.26,60.87,22.83,62.03,23.3,63.01z"/>
			<path fill="#FFFFFF" d="M31.53,56.56c-0.12,2.58,3.74,2.8,4.03,0.39l0.01-0.23C35.63,54.38,31.65,54.05,31.53,56.56z"/>
			<path fill="#FFFFFF" d="M40.48,52.7c-1.46,1.92,1.04,4.31,2.99,2.95c1.05-0.73,0.59-2.14-0.18-2.92
				C42.4,51.81,41.3,51.62,40.48,52.7z"/>
		</g>
	</g>
</g>
</svg>
