<?xml version="1.0" encoding="utf-8"?>
<!-- Generator: Adobe Illustrator 16.0.0, SVG Export Plug-In . SVG Version: 6.00 Build 0)  -->
<!DOCTYPE svg PUBLIC "-//W3C//DTD SVG 1.1//EN" "http://www.w3.org/Graphics/SVG/1.1/DTD/svg11.dtd">
<svg version="1.1" id="レイヤー_1" xmlns="http://www.w3.org/2000/svg" xmlns:xlink="http://www.w3.org/1999/xlink" x="0px"
	 y="0px" width="128px" height="128px" viewBox="0 0 128 128" enable-background="new 0 0 128 128" xml:space="preserve">
<g>
	<path fill="#ED6C30" d="M123.05,31.84c-1.03-2.4-3.5-7.93-3.5-7.93s-11.83-8.38-24.32-12.05c-10.75-3.17-22.46-0.77-27.82,1.52
		c-7.18,3.07-16.85,8.08-24.69,22.39c-5.09,9.3-9.8,25.67-16.46,32.92C19.6,75.92,12.94,79.25,9.6,84.93
		c-2.36,4.02-5.53,9.36-5.41,16.77l-1.79,1.44l3.87,8.83c0,0,3.92,10.78,19,13.52c0,0,12.93,5.68,33.89-9.79
		c15.48-11.43,20.18-15.48,26.84-18.22c6.66-2.74,30.36-14.22,36.25-24.49C129.12,61.03,129.75,47.47,123.05,31.84z"/>
	<path fill="#ED6C30" d="M63.53,4.54c-7.18,3.06-16.85,8.08-24.69,22.38c-5.09,9.3-9.8,25.67-16.46,32.92
		C15.72,67.09,9.07,70.42,5.73,76.1C2.41,81.78-2.69,90,2.41,103.14c0,0,3.92,10.77,19.01,13.52c0,0,12.93,5.68,33.89-9.8
		c15.48-11.43,20.18-15.47,26.84-18.22c6.67-2.75,30.36-14.23,36.25-24.49c6.86-11.95,7.48-25.5,0.78-41.14
		C115.06,13.4,108,7.92,91.35,3.02C80.6-0.14,68.89,2.26,63.53,4.54z"/>
	<path fill="#FFFFFF" d="M28,112.34c-2.93,0-4.53-0.61-4.55-0.62l-0.47-0.18l-0.61-0.14c-11.65-2.12-14.84-9.84-14.98-10.16
		c-4.07-10.5-0.45-16.66,2.74-22.1c1.62-2.77,4.12-4.85,7.29-7.49c2.71-2.25,5.77-4.81,8.9-8.21c4.85-5.28,8.43-13.88,11.89-22.19
		c1.84-4.43,3.58-8.62,5.32-11.77c6.67-12.17,14.56-16.83,22.1-20.04c2.83-1.21,8.33-2.62,14.56-2.62c3.47,0,6.73,0.44,9.67,1.3
		c16.41,4.83,21.38,9.88,24.43,16.97c5.86,13.67,5.69,25.58-0.51,36.39c-4.44,7.74-24.11,18.29-33.66,22.21
		c-5.99,2.47-10.4,5.77-20.08,13c-2.29,1.71-4.89,3.65-7.89,5.87C41.2,110.64,32.97,112.34,28,112.34L28,112.34z"/>
	<path fill="#ED6C30" d="M28.08,105.59c-3.67-0.79-6.68-3.07-7.6-7.35c-0.24-1.12-0.28-3.91-2.08-3.74
		c-2.55,0.23-2.3,7.53-6.32,3.79c-1.28-1.19-1.2-4.29-1.2-5.88c0.02-11.59,12.44-17.83,19.36-25.36
		c5.49-5.98,9.25-15.01,12.89-23.75c1.78-4.29,3.47-8.33,5.07-11.26c1.14-2.08,2.34-4.19,4.96-4.45c1.46-0.15,2.25,1.49,2.76,2.57
		c0.76,1.62,1.99,2.93,2.31,4.75c0.16,0.92,0.6,1.88,0.74,2.8c0.57,3.79-0.17,7.56-1.75,11.03c-1.65,3.64-4.35,6.15-3.25,10.52
		c0.29,1.17,0.66,1.69,1.79,2.15c1.33,0.55,2.02,0.21,3.05-0.81c1.2-1.21,1.18-2.85,1.82-4.31c2.1-4.83,5.36-9.25,6.64-14.42
		c1.45-5.86-1.78-9.54-3.93-14.59c-1.25-2.96-1.19-7.37,1.01-9.87c1.85-2.09,3.67-3.33,6.36-4.03c3.08-0.81,6.28-1.21,9.47-1.21
		c2.73,0,5.51,0.59,6.88,3.25c0.7,1.36,0.77,3.34,0.89,4.84c0.17,2.01,0.03,4.04,0.25,6.04c0.16,1.44,0.13,3.93,1.62,4.79
		c2.84,1.63,4.54-2.8,4.59-4.79c0.06-2.37-1.56-6.14,1.47-7.15c0.93-0.31,2.19-0.5,3.24-0.33c1.08,0.17,2.3,1.08,3.25,1.66
		c11.65,7.2,14.27,26.39,7.11,37.35c-3,4.6-7.1,7.74-11.57,10.78c-3.64,2.48-9.7,6.26-13.9,2.78c-0.53-0.43-0.82-0.96-1.1-1.58
		c-0.15-0.33-0.36-0.66-0.49-0.98c-0.64-1.63,0.16-4.17,0.49-5.8c0.17-0.81,0.12-1.63,0.12-2.47c0-0.8,0.18-1.84-0.03-2.6
		c-0.5-1.79-2.07-2.51-3.74-1.91c-1.84,0.67-2.46,2.95-2.88,4.67c-0.45,1.8-0.49,3.49-0.49,5.36c0,3.09,0.41,6.2,0,9.26
		c-0.72,5.36-7.04,8.31-10.96,11.11c-2.72,1.95-5.4,3.96-8.08,5.96c0,0-5.05,3.78-7.89,5.87c-4.7,3.47-10.02,7.03-15.98,7.57
		C31.31,106,29.64,105.93,28.08,105.59z"/>
</g>
</svg>
