<?xml version="1.0" encoding="utf-8"?>
<!-- Generator: Adobe Illustrator 16.0.0, SVG Export Plug-In . SVG Version: 6.00 Build 0)  -->
<!DOCTYPE svg PUBLIC "-//W3C//DTD SVG 1.1//EN" "http://www.w3.org/Graphics/SVG/1.1/DTD/svg11.dtd">
<svg version="1.1" id="レイヤー_1" xmlns="http://www.w3.org/2000/svg" xmlns:xlink="http://www.w3.org/1999/xlink" x="0px"
	 y="0px" width="128px" height="128px" viewBox="0 0 128 128" enable-background="new 0 0 128 128" xml:space="preserve">
<g>
	<path fill="#FCD4B5" d="M126.67,28.65c-2.1-7.03-13.98-16.93-23.19-16.93c-2.92,0-5.99,0.41-9.15,1.22
		C84.5,15.45,74.05,1.44,63.09,1.33c-10.06-0.1-20.64,13.91-29.66,11.61c-3.15-0.8-6.23-1.22-9.15-1.22
		c-9.21,0-21.38,9.96-23.16,17.08c-6.56,26.22,24.29,57.64,25.43,66.66c2.92,23.04,23.3,31.22,37.9,31.22s34.99-8.17,37.9-31.22
		C103.49,86.43,133.93,52.99,126.67,28.65z"/>
	<g>
		<g>
			<path fill="#2F2F2F" d="M38.82,16.82c1.23,0.63,2.8,0.46,4.15,0.6c8,0.84,15.57,4.33,23.79,3.03c2.02-0.32,3.98-0.89,5.97-1.37
				c2.15-0.52,4.25-1.15,6.47-1.32c2.05-0.16,4.09,0.11,6.15-0.07c0.89-0.08,2.95-0.31,3.11-1.5c0.08-0.53-0.26-1.02-0.75-1.44
				c-0.74-0.64-1.86-1.12-2.44-1.32c-1.94-0.64-4.07-0.86-6.1-0.89c-2.57-0.04-5.04,0.01-7.6,0.18c-3.42,0.22-6.83,1.05-10.27,0.89
				c-2.93-0.13-5.84-0.41-8.76-0.65c-4.15-0.35-9.41-1.27-13.16,1.05C38.33,14.68,37.41,16.1,38.82,16.82z"/>
			<path fill="#2F2F2F" d="M121.02,37.78c-1.86-7.09-8.21-11.16-17.43-11.16c-2.91,0-5.99,0.41-9.14,1.22
				c-18.84,4.83-42.05,4.83-60.9,0c-3.15-0.81-6.22-1.22-9.14-1.22c-9.21,0-15.56,4.07-17.43,11.16
				c-2.01,7.62,5.38,14.24,13.59,17.43c0.2,0.08,0.44,0.15,0.64,0.23c2.64,8.15,6.05,19.84,7.19,28.86
				c2.92,23.04,21,31.22,35.6,31.22c14.6,0,32.68-8.17,35.59-31.22c1.14-9.02,4.56-20.71,7.19-28.86c0.21-0.08,0.44-0.14,0.64-0.23
				C115.64,52.02,123.02,45.4,121.02,37.78z"/>
		</g>
		<path fill="#D65A8C" d="M89.25,93.38c-3.8,8.34-10.24,12.61-20.44,13.7c-1.52,0.16-3.12,0.25-4.81,0.28
			c-1.68-0.02-3.27-0.12-4.77-0.27c-10.22-1.08-16.68-5.34-20.49-13.7c-1.99-4.38-4.24-15.83-5.61-23.63
			c-0.8-4.55-2.05-8.74-2.81-11.56c-0.32-1.21-0.56-2.16-0.62-2.76c-0.01-0.07-0.04-0.18-0.04-0.24c-0.02-0.5,0-0.92,0.04-1.32
			c0.32-3.12,2.48-3.39,5.01-2.86c1.95,0.41,14.58,3.31,19.01,4.06c2.51,0.42,3.49,1.13,4.27,2.65c0.12,0.24,0.25,0.51,0.37,0.8
			c0.31,0.75,0.6,1.89,0.88,3.26c1.22,5.98,2.11,16.37,2.38,18.19c0.08,0.59,0.34,4.47,2.38,4.47c2.04,0,2.29-3.88,2.38-4.47
			c0.26-1.82,1.15-12.21,2.37-18.19c0.28-1.37,0.58-2.51,0.89-3.26c0.11-0.29,0.24-0.56,0.36-0.8c0.78-1.52,1.77-2.22,4.26-2.65
			c4.43-0.75,17.06-3.65,19.02-4.06c2.52-0.53,4.69-0.27,5.01,2.86c0.04,0.4,0.05,0.82,0.03,1.32c0,0.07-0.03,0.19-0.03,0.27
			c-0.07,0.6-0.3,1.54-0.62,2.73c-0.76,2.81-2.01,7.01-2.81,11.56C93.49,77.55,91.23,89.01,89.25,93.38z"/>
		<path fill="#FFFFFF" d="M24.25,34.43c-0.16-0.6-0.18-1.4,0.46-1.65c1.21-0.48,3.69-0.02,4.23,0.02c1.79,0.11,10.54,2.7,11.11,3.52
			c0.22,0.33,0.33,0.77,0.39,1.21c0.1,0.66,0.08,1.32,0.1,1.61c0.08,0.86,0.03,2.75-0.03,4.12c-0.03,0.77-0.06,1.38-0.08,1.54
			c-0.13,0.92-0.38,1.07-1.34,0.79c-2.56-0.76-5.6-1.91-8.5-3.95c-1.82-1.29-3.57-2.91-5.12-5.03c-0.3-0.4-0.83-1.04-1.12-1.89
			C24.32,34.6,24.27,34.52,24.25,34.43z"/>
		<path fill="#FFFFFF" d="M103.3,32.78c0.62,0.24,0.6,1.05,0.46,1.65c-0.03,0.1-0.07,0.18-0.1,0.27c-0.3,0.85-0.82,1.49-1.12,1.89
			c-1.54,2.12-3.31,3.75-5.12,5.03c-2.9,2.04-5.94,3.19-8.5,3.95c-0.96,0.28-1.22,0.14-1.34-0.79c-0.02-0.16-0.05-0.77-0.09-1.54
			c-0.05-1.37-0.09-3.26-0.03-4.12c0.03-0.29,0.01-0.95,0.11-1.61c0.06-0.44,0.16-0.88,0.39-1.21c0.58-0.82,9.33-3.41,11.11-3.52
			C99.6,32.76,102.08,32.3,103.3,32.78z"/>
		<path fill="#FFFFFF" d="M68.33,39.2c3.06-0.65,7.57-0.9,11.3-1.49c0.52-0.09,2.99-0.53,3.67-0.37c0.35,0.08,0.53,0.3,0.63,0.59
			c0.01,0.02,0.01,0.09,0.03,0.13c0.11,0.62,0.19,3.56,0.02,5.76c-0.04,0.52-0.08,1.02-0.16,1.41c-0.26,1.44-1.25,1.94-1.92,2.17
			c-3.47,1.21-9.46,1.46-14.08,1.46c-1.4,0-2.05-0.7-2.08-1.67c0-0.09,0-0.23,0.01-0.39c0.03-1.05,0.18-3.39,0.33-5.12
			c0.12-1.36,0.64-1.94,1.49-2.27C67.79,39.34,68.04,39.26,68.33,39.2z"/>
		<path fill="#FFFFFF" d="M62.06,41.7c0.16,1.75,0.31,4.11,0.33,5.14c0,0.15,0.01,0.28,0,0.37c-0.02,0.97-0.68,1.67-2.07,1.67
			c-4.62,0-10.61-0.25-14.08-1.46c-0.68-0.23-1.67-0.73-1.93-2.17c-0.07-0.39-0.12-0.88-0.15-1.39c-0.16-2.19-0.08-5.11,0.02-5.76
			c0.01-0.05,0.01-0.13,0.02-0.15c0.1-0.29,0.28-0.51,0.63-0.59c0.68-0.17,3.14,0.28,3.67,0.37c3.73,0.59,8.24,0.83,11.3,1.49
			c0.29,0.06,0.54,0.14,0.78,0.23C61.43,39.76,61.95,40.34,62.06,41.7z"/>
	</g>
</g>
</svg>
