<?xml version="1.0" encoding="utf-8"?>
<!-- Generator: Adobe Illustrator 16.0.0, SVG Export Plug-In . SVG Version: 6.00 Build 0)  -->
<!DOCTYPE svg PUBLIC "-//W3C//DTD SVG 1.1//EN" "http://www.w3.org/Graphics/SVG/1.1/DTD/svg11.dtd">
<svg version="1.1" id="レイヤー_1" xmlns="http://www.w3.org/2000/svg" xmlns:xlink="http://www.w3.org/1999/xlink" x="0px"
	 y="0px" width="128px" height="128px" viewBox="0 0 128 128" enable-background="new 0 0 128 128" xml:space="preserve">
<g>
	<path fill="#B89278" d="M21.57,71.29c0,0-5.87,3.47-7.2,6.4c-1.33,2.93-0.26,9.07-0.26,9.07l5.6,3.73l8.27,0.53l76.07-1.3l9-2.17
		l2.4-9.33l-4.27-4.8l-6.13-1.07L21.57,71.29z"/>
	<g>
		<g>
			<g>
				<g>
					<g>
						<g>
							<g>
								<g>
									<g>
										<g>
											<g>
												<path fill="#FCD4B5" d="M103.92,70.48c2.19-0.53,5-0.23,7.14,0.52c5.5,1.95,7.3,7.63,6.58,12.58
													c-0.58,3.95-2.7,7.28-8.11,8.91c-3.27,0.99-7.39-0.35-7.39-0.35c1.02-3.52,0.81-2.7,1.34-4.75
													c5.21,1.67,9.27-1.15,9.32-5.92c0.08-7.69-8.87-6.01-8.87-6.01S103.71,71.88,103.92,70.48z"/>
											</g>
											<g>
												<path fill="#FCD4B5" d="M24.09,70.48c-2.19-0.53-5.01-0.23-7.15,0.52c-5.5,1.95-7.31,7.63-6.57,12.58
													c0.58,3.95,2.08,7.28,7.49,8.91c3.26,0.99,7.55-0.58,7.55-0.58c-1-3.48-0.96-3.33-1.33-4.75
													c-5.21,1.68-8.82-0.92-8.88-5.68c-0.08-7.69,8.86-6.01,8.86-6.01S24.28,71.88,24.09,70.48z"/>
											</g>
											<g>
												<g>
													<path fill="#FCD4B5" d="M105.1,77.81c-0.66-12.06-2.61-24.46-12.17-32.17c-7.73-6.23-18.62-9.42-29.29-9.39
														c-10.67-0.03-21.56,3.16-29.3,9.39c-9.56,7.71-11.51,20.11-12.17,32.17c-0.63,11.44,3.54,22.96,11.63,30.92
														c4.48,4.41,10.06,7.39,15.81,9.02c2.19,0.61,7.83,2.05,13.75,2.05c5.93,0,12.11-1.43,14.3-2.05
														c5.75-1.62,11.33-4.61,15.82-9.02C101.56,100.77,105.73,89.25,105.1,77.81z"/>
												</g>
											</g>
											<path fill="#855C52" d="M17.67,62c-0.28,7.29,1.87,16.63,2.82,20.34c0.62,2.4,1.39,5.85,2.82,5.8
												c1.33-0.05,1.9-3.35,2.09-4.23c1.42-6.44,4.85-12.31,7.87-18.07c0.38-0.74,0.56-1.3,0.62-2.12
												c0.04-0.61-0.16-1.57,0.33-1.85L17.67,62z"/>
											<path fill="#855C52" d="M109.89,61.36c0.27,4.84-0.6,12.11-1.7,17.58c-0.31,1.53-2.13,8.87-3.57,8.84
												c-1.33-0.03-2.25-5.05-2.49-5.92c-2.19-7.97-4.67-10.69-7.77-16.41c-0.4-0.73-0.58-1.29-0.65-2.11
												c-0.05-0.61,0.13-1.57-0.38-1.85L109.89,61.36z"/>
										</g>
									</g>
								</g>
							</g>
						</g>
						<g>
							<g>
								<path fill="#2F2F2F" d="M63.92,96.91c4.64,0,7.21-3.86,5.46-4.72c-1.74-0.85-1.9,2.27-5.46,2.27
									c-3.57,0-3.73-3.12-5.46-2.27C56.72,93.05,59.27,96.91,63.92,96.91z"/>
							</g>
							<g>
								<g>
									<path fill="#2F2F2F" d="M49.65,83.68c0,3.18-2.35,5.77-5.24,5.77c-2.89,0-5.23-2.59-5.23-5.77c0-3.19,2.34-5.77,5.23-5.77
										C47.3,77.91,49.65,80.49,49.65,83.68z"/>
								</g>
							</g>
							<g>
								<g>
									<path fill="#2F2F2F" d="M77.45,83.68c0,3.18,2.35,5.77,5.23,5.77c2.88,0,5.23-2.59,5.23-5.77c0-3.19-2.36-5.77-5.23-5.77
										C79.79,77.91,77.45,80.49,77.45,83.68z"/>
								</g>
							</g>
						</g>
					</g>
					<path fill="#006CA2" d="M63.77,8.21c-11.43,0-26.93,3.15-38.04,10.16c-3.62,2.29-7,4.98-9.79,8.11
						c-3.38,3.8-5.4,9.32-4.67,14.24c0.79,5.11,6.8,11.63,13.1,8.5c6.24-3.11,13.32-4.23,20.16-5.87
						c6.42-1.54,12.83-3.08,19.25-4.61c0.36,0.09,0.72,0.18,1.07,0.26c7.79,1.87,15.59,3.73,23.36,5.6
						c4.34,1.04,9.55,4.36,13.89,5.4c5.63,1.35,11.26-3.68,13.19-8.33c1.77-4.26-0.08-11.28-4.08-15.62
						c-2.78-3.02-6.1-5.63-9.65-7.85C90.48,11.31,75.11,8.21,63.77,8.21z"/>
				</g>
				<path fill="#2F2F2F" d="M63.3,57.13c-23.98,0-44.45,3.33-44.45,3.33s11.03,17.21,45.61,17.21c34.57,0,43.3-17.21,43.3-17.21
					S87.27,57.13,63.3,57.13z"/>
				<path fill="#FFFFFF" d="M34.85,57.43c-0.23,0.08-0.43,0.17-0.56,0.27c-0.73,0.54-0.56,1.54-0.78,2.37
					c-0.92,3.4-3.2,6.07-2.71,9.81c1.11,0.08,2.6,1.27,3.7,1.65c1.51,0.52,3.06,1.13,4.54,1.59c1.12,0.35,2.32,0.58,3.42,0.97
					c1.01,0.36,1.85,1.13,2.92,1.41c-0.06-1.15,0.64-2.39,0.92-3.5c0.95-3.84,2.09-7.58,3.08-11.41c0.22-0.86,0.21-1.77,0.45-2.62
					c0.23-0.82,0.67-1.5,0.63-2.4c-2.44-0.31-4.71,0.57-7.11,0.77c-1.81,0.15-3.61,0.31-5.42,0.52
					C37.26,56.93,35.77,57.11,34.85,57.43z"/>
				<path fill="#FFFFFF" d="M57.06,58.71c-0.58,0-1.15-0.01-1.73,0.06c-0.33,0.06-1.02,4.4-1.09,4.71
					c-0.88,3.46-2.07,6.99-2.54,10.53c-0.08,0.57-0.33,1.85-0.65,2.27c1.19,0.22,2.5-0.01,3.73,0.12c1.58,0.17,2.97,0.62,4.58,0.42
					c0.23-1.01,0.51-2.03,0.71-3.07c0.19-1.03,3.35-15.3,2.85-15.36C60.98,58.15,59,58.73,57.06,58.71z"/>
				<path fill="#2F2F2F" d="M64.46,79.8c-35.33,0-46.93-17.45-47.41-18.19c-0.39-0.61-0.45-1.36-0.15-2.02
					c0.3-0.66,0.9-1.12,1.61-1.24c0.21-0.03,20.92-3.36,44.79-3.36s44.6,3.33,44.8,3.36c0.67,0.11,1.25,0.53,1.57,1.14
					c0.3,0.61,0.31,1.33,0,1.93C109.28,62.17,99.93,79.8,64.46,79.8z M23.02,62.01c4.72,4.62,17.01,13.52,41.44,13.52
					c24.66,0,35.57-8.94,39.52-13.47c-6.8-0.92-22.84-2.81-40.68-2.81C45.79,59.26,30.02,61.07,23.02,62.01z"/>
				<g>
					<path fill="#2F2F2F" d="M18.84,59.39c0,0,20.48-3.33,44.45-3.33c23.97,0,44.46,3.33,44.46,3.33v-9.07
						c0,0-20.48-9.07-44.46-9.07c-23.98,0-44.45,9.07-44.45,9.07V59.39z"/>
					<path fill="#2F2F2F" d="M18.84,62.59c-0.75,0-1.49-0.27-2.08-0.76c-0.71-0.61-1.12-1.5-1.12-2.44v-9.07
						c0-1.27,0.75-2.41,1.9-2.93c0.86-0.38,21.38-9.35,45.75-9.35s44.89,8.96,45.76,9.35c1.16,0.51,1.9,1.66,1.9,2.93v9.07
						c0,0.94-0.41,1.83-1.12,2.44c-0.73,0.61-1.67,0.87-2.59,0.72c-0.21-0.03-20.53-3.29-43.95-3.29c-23.45,0-43.74,3.26-43.94,3.29
						C19.18,62.58,19.02,62.59,18.84,62.59z M63.3,52.86c17.99,0,34.21,1.89,41.26,2.84v-3.22c-5.54-2.15-22.39-8.02-41.26-8.02
						c-18.87,0-35.72,5.88-41.26,8.02v3.22C29.09,54.75,45.31,52.86,63.3,52.86z"/>
				</g>
				<path fill="#FCC21B" d="M74.11,46.23c0,5.61-4.84,10.16-10.8,10.16c-5.98,0-10.82-4.55-10.82-10.16
					c0-5.61,4.83-10.15,10.82-10.15C69.27,36.08,74.11,40.62,74.11,46.23z"/>
			</g>
			<path fill="#2F2F2F" d="M72.66,101.75c-0.81-0.57-2.01-0.26-2.92-0.16c-1.8,0.2-3.63,0.33-5.45,0.33c-0.12,0-0.25-0.01-0.38-0.01
				s-0.25,0.01-0.38,0.01c-1.81,0-3.64-0.12-5.45-0.33c-0.91-0.1-2.1-0.41-2.92,0.16c-0.88,0.62-0.52,1.88,0.18,2.5
				c0.98,0.88,2.06,1.36,3.34,1.68c0.64,0.15,2.94,0.61,5.23,0.61s4.58-0.45,5.23-0.61c1.28-0.32,2.38-0.8,3.34-1.68
				C73.19,103.63,73.56,102.37,72.66,101.75z"/>
		</g>
	</g>
</g>
</svg>
