<?xml version="1.0" encoding="utf-8"?>
<!-- Generator: Adobe Illustrator 16.0.0, SVG Export Plug-In . SVG Version: 6.00 Build 0)  -->
<!DOCTYPE svg PUBLIC "-//W3C//DTD SVG 1.1//EN" "http://www.w3.org/Graphics/SVG/1.1/DTD/svg11.dtd">
<svg version="1.1" id="レイヤー_1" xmlns="http://www.w3.org/2000/svg" xmlns:xlink="http://www.w3.org/1999/xlink" x="0px"
	 y="0px" width="128px" height="128px" viewBox="0 0 128 128" enable-background="new 0 0 128 128" xml:space="preserve">
<g>
	<path fill="#2F2F2F" d="M125.03,38.6c-3.28-0.86-6.78-1.02-10.15-0.46c-1.13,0.19-2.25,0.46-3.31,0.79l-0.31,0.09
		c-0.74,0.23-1.63,0.57-2,1.09c-0.92,1.33-0.34,3.26-0.14,3.82c0.41,1.13,1.8,2.31,3.05,2.19c0.58-0.06,1.14-0.27,1.68-0.46
		c0.34-0.12,0.68-0.24,1-0.32c2.76-0.66,5.66-0.63,8.39,0.09c0.82,0.21,1.68,0.12,2.43-0.24c0.93-0.45,1.62-1.28,1.88-2.29
		c0.24-0.91,0.11-1.86-0.37-2.67C126.71,39.42,125.94,38.84,125.03,38.6z"/>
	<path fill="#2F2F2F" d="M13.65,26.69c1.68,0.58,3.28,1.38,4.77,2.36c0.66,0.44,1.36,0.91,1.37,1.95c0.01,0.86-0.23,1.73-0.66,2.48
		c-0.54,0.92-2.26,2.43-3.61,2.02c-0.51-0.15-0.95-0.46-1.38-0.76c-0.22-0.16-0.44-0.31-0.66-0.43c-0.61-0.34-1.24-0.63-1.87-0.87
		c-1.61-0.6-3.07-0.9-4.31-0.87C5.56,32.65,4,31.41,3.68,29.7c-0.03-0.15-0.05-0.32-0.06-0.47c-0.05-0.94,0.28-1.84,0.91-2.54
		c0.63-0.7,1.5-1.11,2.44-1.16c0.13,0,0.25,0,0.37,0C9.32,25.51,11.44,25.91,13.65,26.69z"/>
	<g>
		<g>
			<g>
				<path fill="#D7598B" d="M118.29,36.25c-5.27-12.33-14.23-18.84-26.08-18.84l-0.29,0.01c-0.35,0-0.69,0-1.02,0.01
					c-4.54,0.07-9.11,1.06-13.58,2.93c-3.13,1.31-5.53,3.02-8.07,4.84c-1.17,0.83-2.36,1.69-3.64,2.5c-1.14,0.73-2.95,0.73-4.08,0
					c-1.29-0.81-2.48-1.66-3.65-2.5c-2.54-1.81-4.93-3.52-8.07-4.84c-4.47-1.88-9.03-2.86-13.56-2.93
					c-0.35-0.01-0.69-0.01-1.04-0.01l-0.46-0.01c-11.67,0-20.63,6.51-25.9,18.83C6.67,41.32,6.6,48.98,7.49,54.32
					c0.82,4.92,2.81,9.67,6.08,14.54c6.05,9.02,15.08,15.13,23.81,21.05c5.47,3.71,11.14,7.54,15.95,12.03
					c0.61,0.57,1.21,1.16,1.82,1.75c0.73,0.71,1.46,1.42,2.21,2.1c0.37,0.34,0.76,0.81,1.19,1.31c1.27,1.5,2.85,3.37,4.96,3.5h0.06
					h0.06c2.12-0.13,3.69-1.99,4.96-3.49c0.43-0.5,0.81-0.97,1.19-1.32c0.74-0.69,1.48-1.4,2.21-2.1c0.6-0.59,1.21-1.18,1.82-1.75
					c4.81-4.49,10.48-8.32,15.95-12.03c8.73-5.91,17.76-12.02,23.82-21.05c3.27-4.87,5.26-9.63,6.08-14.54
					C120.54,48.98,120.46,41.32,118.29,36.25z"/>
			</g>
		</g>
	</g>
	<g>
		<path fill="#2F2F2F" d="M17.37,47.28c-0.54-0.54-1.23-0.79-2.08-0.71C12,46.92,6.94,48.34,1.52,53.12
			c-1.46,1.29-1.6,3.52-0.31,4.98c0.3,0.34,0.67,0.62,1.1,0.83c0.48,0.24,1.02,0.35,1.55,0.35c0.86,0,1.69-0.31,2.33-0.88
			c2.42-2.14,4.94-3.6,7.48-4.35c0.28-0.08,0.65-0.12,1.04-0.18c0.72-0.09,1.46-0.18,1.99-0.52c1.04-0.65,1.56-1.85,1.57-3.64
			C18.28,48.75,17.95,47.86,17.37,47.28z"/>
		<path fill="#2F2F2F" d="M27.65,68.41c-0.37,0-0.75,0.09-1.12,0.28c-3.35,1.67-7.71,5.08-9.45,11.87c-0.48,1.89,0.66,3.81,2.55,4.3
			l0.14,0.03c0.24,0.05,0.49,0.08,0.74,0.08c1.61,0,3.02-1.09,3.42-2.65c0.56-2.2,1.65-4.1,3.15-5.5c0.32-0.3,0.7-0.58,1.1-0.87
			c1.21-0.88,2.58-1.88,2.49-3.72C30.6,70.66,29.48,68.41,27.65,68.41z"/>
		<path fill="#2F2F2F" d="M48.99,84.86C48.32,84.31,47.47,84,46.66,84c-0.97,0-1.8,0.42-2.34,1.19c-0.63,0.91-1.29,1.9-1.84,3.02
			c-1.43,2.9-2.17,6.26-2.15,9.72c0.01,1.83,1.45,3.37,3.27,3.5c0.09,0.01,0.19,0.01,0.28,0.01h0c0.94,0,1.83-0.38,2.49-1.05
			c0.66-0.67,1.02-1.56,1.02-2.5c-0.01-2.34,0.46-4.58,1.37-6.48c0.19-0.4,0.4-0.76,0.6-1.1c0.66-1.12,1.29-2.18,0.79-3.93
			C49.97,85.71,49.48,85.25,48.99,84.86z"/>
		<path fill="#2F2F2F" d="M91.84,84.02c-0.88-1.54-1.96-2.97-3.2-4.25c-0.55-0.58-1.15-1.17-2.16-0.99
			c-0.84,0.15-1.67,0.54-2.32,1.11c-0.81,0.7-1.98,2.66-1.33,3.92c0.24,0.47,0.63,0.85,1,1.21c0.19,0.19,0.38,0.37,0.54,0.57
			c0.44,0.54,0.84,1.11,1.19,1.68c0.89,1.47,1.44,2.85,1.65,4.08c0.24,1.73,1.74,3.03,3.49,3.03c0.16,0,0.32-0.01,0.47-0.03
			c0.93-0.12,1.76-0.61,2.34-1.35c0.57-0.75,0.82-1.67,0.69-2.61c-0.02-0.12-0.04-0.25-0.06-0.37C93.78,88.07,93,86.06,91.84,84.02z
			"/>
		<path fill="#2F2F2F" d="M112.48,61.23c-1.25-0.86-2.73-1.78-4.23-2.06c-0.28-0.05-0.56-0.05-0.82,0.01
			c-1.55,0.31-2.55,2.25-2.61,3.95c-0.06,1.47,0.58,2.55,1.7,2.87c0.04,0.01,3.65,1.1,6.95,6.68c0.77,1.29,2.27,1.96,3.74,1.66
			c0.39-0.08,0.76-0.22,1.1-0.42c1.67-1,2.23-3.16,1.24-4.84C117.56,65.73,115.18,63.09,112.48,61.23z"/>
		<path fill="#2F2F2F" d="M40.22,42.65c1.88-0.38,3.41-0.91,3.1-3.68c-0.15-1.34-1.07-3.47-2.95-3.47
			c-3.34,0.05-6.73,2.03-8.46,3.21c-1.4,0.96-2.44,1.84-3.26,2.78c-1.29,1.46-1.14,3.69,0.32,4.98c0.64,0.57,1.47,0.88,2.33,0.88
			c1.01,0,1.98-0.43,2.65-1.2c0.97-1.1,2.44-2.1,4.14-2.83C38.79,43.01,39.51,42.79,40.22,42.65z"/>
		<path fill="#2F2F2F" d="M45.52,70.54c0.53-1.47,1.37-3.04,2.58-4.81c0.48-0.7,0.98-1.36,1.5-1.96c0.12-0.13,0.25-0.27,0.38-0.4
			c0.35-0.36,0.75-0.77,0.98-1.29c0.54-1.21,0.21-3.14-0.69-4.03c-0.54-0.54-1.62-1.45-2.73-1.45c-0.5,0-0.94,0.17-1.31,0.52
			c-4.98,4.59-7.25,10.75-7.35,11.01c-0.66,1.83,0.29,3.86,2.11,4.52c0.39,0.14,0.79,0.21,1.21,0.21
			C43.68,72.86,45.02,71.93,45.52,70.54z"/>
		<path fill="#2F2F2F" d="M70.47,79.27c-0.32-2.07-0.81-5.19-2.45-6.17c-0.4-0.25-0.87-0.36-1.39-0.36c-1.37,0-2.77,0.84-3.48,1.63
			c-0.71,0.78-1.05,1.51-0.59,2.74c1.65,4.41,1.62,9.67,1.61,10.26c-0.03,0.95,0.31,1.84,0.96,2.52c0.65,0.69,1.52,1.08,2.48,1.11h0
			c1.97,0,3.55-1.5,3.61-3.45l0.01-0.22c0.03-2.33-0.18-4.78-0.62-7.29C70.56,79.8,70.52,79.55,70.47,79.27z"/>
		<path fill="#2F2F2F" d="M86.25,57.86c0.53,0.53,1.06,1.12,1.57,1.76c1.3,1.61,2.26,3.08,2.92,4.5c0.58,1.24,1.84,2.05,3.2,2.05
			c0.52,0,1.01-0.11,1.48-0.33c1.76-0.81,2.54-2.91,1.73-4.67c-0.6-1.32-1.42-2.68-2.56-4.3c-0.96-1.35-2-2.61-3.1-3.74l-0.3-0.31
			c-0.69-0.72-1.4-1.48-2.59-1.48c-0.24,0-0.49,0.03-0.75,0.09c-1.31,0.31-2.48,1.45-2.92,2.85c-0.55,1.74,0.2,2.5,1.16,3.45
			L86.25,57.86z"/>
		<path fill="#2F2F2F" d="M104.56,37.13c-2.16-1.48-4.73-2.72-7.65-3.67l-0.54-0.19c-0.81-0.28-1.73-0.6-2.61-0.6
			c-0.92,0-1.67,0.35-2.21,1.05c-0.39,0.5-0.69,1.12-0.85,1.79c-0.19,0.8-0.2,2.06,0.4,3.01c0.34,0.55,0.85,0.9,1.45,1.03
			c0.04,0.01,4.48,0.96,8.01,3.38c0.59,0.41,1.28,0.62,1.99,0.62c0.14,0,0.29-0.01,0.43-0.02c1-0.12,1.9-0.67,2.48-1.5
			C106.57,40.43,106.16,38.23,104.56,37.13z"/>
		<path fill="#2F2F2F" d="M71.02,47.96c-0.78-0.58-1.61-1.09-2.46-1.5c-0.86-0.42-1.51-0.6-2.12-0.6c-0.9,0-1.68,0.42-2.38,1.31
			c-0.46,0.59-0.81,1.34-0.94,2.07c-0.15,0.85-0.02,1.64,0.39,2.26c0.5,0.76,1.1,1.07,1.9,1.31c0.69,0.21,1.35,0.73,1.79,1.1
			c1.08,0.9,1.99,2.14,2.63,3.56c0.57,1.27,1.83,2.09,3.22,2.09c0.5,0,0.99-0.11,1.45-0.31c0.86-0.39,1.52-1.09,1.86-1.98
			c0.33-0.88,0.3-1.83-0.08-2.69C75.08,51.91,73.26,49.62,71.02,47.96z"/>
	</g>
</g>
</svg>
